<svg width="15" height="11" viewBox="0 0 15 11" fill="none" xmlns="http://www.w3.org/2000/svg">
    <path fill-rule="evenodd" clip-rule="evenodd" d="M7.80371 10.4751C11.6697 10.4751 14.8037 8.23652 14.8037 5.4751C14.8037 2.71367 11.6697 0.475098 7.80371 0.475098C3.93772 0.475098 0.803711 2.71367 0.803711 5.4751C0.803711 8.23652 3.93772 10.4751 7.80371 10.4751Z" fill="#34B53A"/>
    </svg>
    