<svg width="15" height="11" viewBox="0 0 15 11" fill="none" xmlns="http://www.w3.org/2000/svg">
    <path fill-rule="evenodd" clip-rule="evenodd" d="M7.95703 10.4751C11.823 10.4751 14.957 8.23652 14.957 5.4751C14.957 2.71367 11.823 0.475098 7.95703 0.475098C4.09104 0.475098 0.957031 2.71367 0.957031 5.4751C0.957031 8.23652 4.09104 10.4751 7.95703 10.4751Z" fill="#FC0B0B"/>
    </svg>
    